<svg xmlns='http://www.w3.org/2000/svg'
     xmlns:xlink='http://www.w3.org/1999/xlink'
     preserveAspectRatio='none'
     xmlns:inkscape='http://www.inkscape.org/namespaces/inkscape'
     xmlns:sodipodi='http://sodipodi.sourceforge.net/DTD/sodipodi-0.dtd'
     viewBox='-100 -100 767.65 616.76'
     width='767.65'
     height='616.76'>
    <rect x='-100' y='-100' width='100%' height='100%' fill='bisque'/>
    <sodipodi:namedview inkscape:window-width='1415' inkscape:window-height='905' inkscape:zoom='1'/>
    <style type='text/css'>
        .grid { stroke: #9e9ed1; stroke-width: 0.4; }
        .axes { stroke: #000; stroke-width: 0.9; }
        .notch-labels-in-grid { stroke: none; fill: #b8b8de; }
        .graph { stroke: #ff0000; stroke-width: 1.7; fill: none; }
        .none { display: none; }
    </style>
    <defs>
        <path id='MJMAIN-30' stroke-width='1' d='M96 585Q152 666 249 666Q297 666 345 640T423 548Q460 465 460 320Q460 165 417 83Q397 41 362 16T301 -15T250 -22Q224 -22 198 -16T137 16T82 83Q39 165 39 320Q39 494 96 585ZM321 597Q291 629 250 629Q208 629 178 597Q153 571 145 525T137 333Q137 175 145 125T181 46Q209 16 250 16Q290 16 318 46Q347 76 354 130T362 333Q362 478 354 524T321 597Z'/>
        <path id='MJMAIN-31' stroke-width='1' d='M213 578L200 573Q186 568 160 563T102 556H83V602H102Q149 604 189 617T245 641T273 663Q275 666 285 666Q294 666 302 660V361L303 61Q310 54 315 52T339 48T401 46H427V0H416Q395 3 257 3Q121 3 100 0H88V46H114Q136 46 152 46T177 47T193 50T201 52T207 57T213 61V578Z'/>
        <path id='MJMAIN-32' stroke-width='1' d='M109 429Q82 429 66 447T50 491Q50 562 103 614T235 666Q326 666 387 610T449 465Q449 422 429 383T381 315T301 241Q265 210 201 149L142 93L218 92Q375 92 385 97Q392 99 409 186V189H449V186Q448 183 436 95T421 3V0H50V19V31Q50 38 56 46T86 81Q115 113 136 137Q145 147 170 174T204 211T233 244T261 278T284 308T305 340T320 369T333 401T340 431T343 464Q343 527 309 573T212 619Q179 619 154 602T119 569T109 550Q109 549 114 549Q132 549 151 535T170 489Q170 464 154 447T109 429Z'/>
        <path id='MJMAIN-33' stroke-width='1' d='M127 463Q100 463 85 480T69 524Q69 579 117 622T233 665Q268 665 277 664Q351 652 390 611T430 522Q430 470 396 421T302 350L299 348Q299 347 308 345T337 336T375 315Q457 262 457 175Q457 96 395 37T238 -22Q158 -22 100 21T42 130Q42 158 60 175T105 193Q133 193 151 175T169 130Q169 119 166 110T159 94T148 82T136 74T126 70T118 67L114 66Q165 21 238 21Q293 21 321 74Q338 107 338 175V195Q338 290 274 322Q259 328 213 329L171 330L168 332Q166 335 166 348Q166 366 174 366Q202 366 232 371Q266 376 294 413T322 525V533Q322 590 287 612Q265 626 240 626Q208 626 181 615T143 592T132 580H135Q138 579 143 578T153 573T165 566T175 555T183 540T186 520Q186 498 172 481T127 463Z'/>
        <path id='MJMAIN-34' stroke-width='1' d='M462 0Q444 3 333 3Q217 3 199 0H190V46H221Q241 46 248 46T265 48T279 53T286 61Q287 63 287 115V165H28V211L179 442Q332 674 334 675Q336 677 355 677H373L379 671V211H471V165H379V114Q379 73 379 66T385 54Q393 47 442 46H471V0H462ZM293 211V545L74 212L183 211H293Z'/>
        <path id='MJMAIN-35' stroke-width='1' d='M164 157Q164 133 148 117T109 101H102Q148 22 224 22Q294 22 326 82Q345 115 345 210Q345 313 318 349Q292 382 260 382H254Q176 382 136 314Q132 307 129 306T114 304Q97 304 95 310Q93 314 93 485V614Q93 664 98 664Q100 666 102 666Q103 666 123 658T178 642T253 634Q324 634 389 662Q397 666 402 666Q410 666 410 648V635Q328 538 205 538Q174 538 149 544L139 546V374Q158 388 169 396T205 412T256 420Q337 420 393 355T449 201Q449 109 385 44T229 -22Q148 -22 99 32T50 154Q50 178 61 192T84 210T107 214Q132 214 148 197T164 157Z'/>
        <path id='MJMAIN-36' stroke-width='1' d='M42 313Q42 476 123 571T303 666Q372 666 402 630T432 550Q432 525 418 510T379 495Q356 495 341 509T326 548Q326 592 373 601Q351 623 311 626Q240 626 194 566Q147 500 147 364L148 360Q153 366 156 373Q197 433 263 433H267Q313 433 348 414Q372 400 396 374T435 317Q456 268 456 210V192Q456 169 451 149Q440 90 387 34T253 -22Q225 -22 199 -14T143 16T92 75T56 172T42 313ZM257 397Q227 397 205 380T171 335T154 278T148 216Q148 133 160 97T198 39Q222 21 251 21Q302 21 329 59Q342 77 347 104T352 209Q352 289 347 316T329 361Q302 397 257 397Z'/>
        <path id='MJMAIN-37' stroke-width='1' d='M55 458Q56 460 72 567L88 674Q88 676 108 676H128V672Q128 662 143 655T195 646T364 644H485V605L417 512Q408 500 387 472T360 435T339 403T319 367T305 330T292 284T284 230T278 162T275 80Q275 66 275 52T274 28V19Q270 2 255 -10T221 -22Q210 -22 200 -19T179 0T168 40Q168 198 265 368Q285 400 349 489L395 552H302Q128 552 119 546Q113 543 108 522T98 479L95 458V455H55V458Z'/>
        <path id='MJMAIN-38' stroke-width='1' d='M70 417T70 494T124 618T248 666Q319 666 374 624T429 515Q429 485 418 459T392 417T361 389T335 371T324 363L338 354Q352 344 366 334T382 323Q457 264 457 174Q457 95 399 37T249 -22Q159 -22 101 29T43 155Q43 263 172 335L154 348Q133 361 127 368Q70 417 70 494ZM286 386L292 390Q298 394 301 396T311 403T323 413T334 425T345 438T355 454T364 471T369 491T371 513Q371 556 342 586T275 624Q268 625 242 625Q201 625 165 599T128 534Q128 511 141 492T167 463T217 431Q224 426 228 424L286 386ZM250 21Q308 21 350 55T392 137Q392 154 387 169T375 194T353 216T330 234T301 253T274 270Q260 279 244 289T218 306L210 311Q204 311 181 294T133 239T107 157Q107 98 150 60T250 21Z'/>
        <path id='MJMAIN-39' stroke-width='1' d='M352 287Q304 211 232 211Q154 211 104 270T44 396Q42 412 42 436V444Q42 537 111 606Q171 666 243 666Q245 666 249 666T257 665H261Q273 665 286 663T323 651T370 619T413 560Q456 472 456 334Q456 194 396 97Q361 41 312 10T208 -22Q147 -22 108 7T68 93T121 149Q143 149 158 135T173 96Q173 78 164 65T148 49T135 44L131 43Q131 41 138 37T164 27T206 22H212Q272 22 313 86Q352 142 352 280V287ZM244 248Q292 248 321 297T351 430Q351 508 343 542Q341 552 337 562T323 588T293 615T246 625Q208 625 181 598Q160 576 154 546T147 441Q147 358 152 329T172 282Q197 248 244 248Z'/>
        <path id='MJMAIN-2212' stroke-width='1' d='M84 237T84 250T98 270H679Q694 262 694 250T679 230H98Q84 237 84 250Z'/>
    </defs>
    <g id='grid' inkscape:groupmode='layer' inkscape:label='grid'>
        <path class='grid' d='M 0,416.76 V 227.01675 M 0,209.24745 V 0'/>
        <path class='grid' d='M 50,416.76 V 227.01675 M 50,209.24745 V 0'/>
        <path class='grid' d='M 100,416.76 V 227.01675 M 100,209.24745 V 0'/>
        <path class='grid' d='M 150,416.76 V 227.01675 M 150,209.24745 V 0'/>
        <path class='grid' d='M 200,416.76 V 227.01675 M 200,209.24745 V 0'/>
        <path class='grid' d='M 250,416.76 V 227.01675 M 250,209.24745 V 0'/>
        <path class='grid' d='M 300,416.76 V 227.01675 M 300,209.24745 V 0'/>
        <path class='grid' d='M 350,416.76 V 227.01675 M 350,209.24745 V 0'/>
        <path class='grid' d='M 400,416.76 V 227.01675 M 400,209.24745 V 0'/>
        <path class='grid' d='M 450,416.76 V 227.01675 M 450,209.24745 V 0'/>
        <path class='grid' d='M 500,416.76 V 227.02069 M 500,209.24374 V 0'/>
        <path class='grid' d='M 550,416.76 V 227.02069 M 550,209.24374 V 0'/>
        <path class='grid' d='M 0,388.275 H 111.10237 M 140.40264,388.275 H 567.65'/>
        <path class='grid' d='M 0,328.275 H 567.65'/>
        <path class='grid' d='M 0,268.275 H 567.65'/>
        <path class='grid' d='M 0,208.275 H 124.45306 M 140.40264,208.275 H 567.65'/>
        <path class='grid' d='M 0,148.275 H 567.65'/>
        <path class='grid' d='M 0,88.275 H 567.65'/>
        <path class='grid' d='M 0,28.275 H 124.45306 M 140.40264,28.275 H 567.65'/>
    </g>
    <g id='axes' inkscape:groupmode='layer' inkscape:label='axes'>
        <path class='axes' d='M 0,208.275 H 124.45306 M 140.40264,208.275 H 567.65'/>
        <path class='axes' d='M 150,416.76 V 227.01675 M 150,209.24745 V 0'/>
    </g>
    <g id='notch labels' class='notch-labels-in-grid' inkscape:groupmode='layer' inkscape:label='notch labels'>
        <g transform='translate(0,217.87236000000001) scale(0.017129598041958044) translate(-250.25,337.90709467407163) scale(1,-1)'>
            <use xlink:href='#MJMAIN-30' x='0' y='0'/>
        </g>
        <g transform='translate(50,217.87236000000001) scale(0.017129598041958044) translate(-250.25,337.90709467407163) scale(1,-1)'>
            <use xlink:href='#MJMAIN-31' x='0' y='0'/>
        </g>
        <g transform='translate(100,217.87236000000001) scale(0.017129598041958044) translate(-250.25,337.90709467407163) scale(1,-1)'>
            <use xlink:href='#MJMAIN-32' x='0' y='0'/>
        </g>
        <g transform='translate(150,217.87236000000001) scale(0.017129598041958044) translate(-250.25,337.90709467407163) scale(1,-1)'>
            <use xlink:href='#MJMAIN-33' x='0' y='0'/>
        </g>
        <g transform='translate(200,217.87236000000001) scale(0.017129598041958044) translate(-250.25,337.90709467407163) scale(1,-1)'>
            <use xlink:href='#MJMAIN-34' x='0' y='0'/>
        </g>
        <g transform='translate(250,217.87236000000001) scale(0.017129598041958044) translate(-250.25,337.90709467407163) scale(1,-1)'>
            <use xlink:href='#MJMAIN-35' x='0' y='0'/>
        </g>
        <g transform='translate(300,217.87236000000001) scale(0.017129598041958044) translate(-250.25,337.90709467407163) scale(1,-1)'>
            <use xlink:href='#MJMAIN-36' x='0' y='0'/>
        </g>
        <g transform='translate(350,217.87236000000001) scale(0.017129598041958044) translate(-250.25,337.90709467407163) scale(1,-1)'>
            <use xlink:href='#MJMAIN-37' x='0' y='0'/>
        </g>
        <g transform='translate(400,217.87236000000001) scale(0.017129598041958044) translate(-250.25,337.90709467407163) scale(1,-1)'>
            <use xlink:href='#MJMAIN-38' x='0' y='0'/>
        </g>
        <g transform='translate(450,217.87236000000001) scale(0.017129598041958044) translate(-250.25,337.90709467407163) scale(1,-1)'>
            <use xlink:href='#MJMAIN-39' x='0' y='0'/>
        </g>
        <g transform='translate(500,217.87236000000001) scale(0.017136968781218787) translate(-500.5,337.90709467407163) scale(1,-1)'>
            <use xlink:href='#MJMAIN-31'/>
            <use xlink:href='#MJMAIN-30' x='500' y='0'/>
        </g>
        <g transform='translate(550,217.87236000000001) scale(0.017136968781218787) translate(-500.5,337.90709467407163) scale(1,-1)'>
            <use xlink:href='#MJMAIN-31'/>
            <use xlink:href='#MJMAIN-31' x='500' y='0'/>
        </g>
        <g transform='translate(140.40264,388.275) scale(0.017138674597341676) translate(-1494.2999062792878,337.8973388537694) scale(1,-1)'>
            <use xlink:href='#MJMAIN-2212' x='0' y='0'/>
            <use xlink:href='#MJMAIN-36' x='778' y='0'/>
        </g>
        <g transform='translate(140.40264,208.275) scale(0.017129598041958044) translate(-715.8061224489796,337.90709467407163) scale(1,-1)'>
            <use xlink:href='#MJMAIN-30' x='0' y='0'/>
        </g>
        <g transform='translate(140.40264,28.275000000000006) scale(0.017129598041958044) translate(-715.8061224489796,337.90709467407163) scale(1,-1)'>
            <use xlink:href='#MJMAIN-36' x='0' y='0'/>
        </g>
    </g>
    <g id='graphs' inkscape:groupmode='layer' inkscape:label='graphs'>
        <path class='graph' d='M 0,208.275 H 110.75 L 111.695,411.207 113.095,412.377 115.535,407.688 117.68,412.569 120.525,412.098 122.52,413.58 124.96,409.092 127.305,412.458 130.095,414.291 132.29,409.305 134.835,412.866 137.28,411.381 139.32,411.15 141.765,416.76 144.41,410.658 146.405,414.897 149.195,411.405 151.39,415.641 153.035,416.727 154.18,407.988 156.425,414.858 158.42,409.506 161.165,413.439 163.555,405.39 165.75,406.158 168.445,399.705 170.34,398.916 173.18,386.586 175.225,387.276 177.965,384.006 180.41,374.541 182.555,362.682 184.2,364.905 184.45,208.275 H 186.75 L 187.35,50.064 188.585,51.276 190.61,38.724 193.33,41.103 195.305,28.431 197.63,26.136 200.1,23.244 202.57,17.289 204.3,12.252 204.55,208.275 H 206.3 L 207.8,401.475 208.15,399.543 210.99,398.805 212.88,387.534 215.67,381.591 217.91,381.708 220.25,368.523 222.84,369.207 224.835,356.934 227.725,356.289 229.715,341.187 232.405,334.077 234.4,319.116 236.84,317.127 239.73,301.194 241.67,294.999 244.36,284.181 246.4,272.361 248.845,264.321 251.58,254.097 253.925,237.645 255.965,227.613 258.355,215.124 260.05,208.434 260.3,208.275 261.24,4.239 262.775,7.884 265.295,0.165 267.62,5.145 269.75,0.006 272.37,7.377 274.35,1.29 276.775,6.948 279.15,4.995 279.4,208.275 H 302.75 L 303.65,2.979 304,0.117 304.25,208.275 H 347.24 L 348.485,204.459 348.885,195.939 351.575,171.639 353.87,151.23 356.415,132.519 358.86,107.211 360.95,91.455 363.545,65.919 365.54,57.756 368.335,37.989 370.475,30.828 373.17,17.313 375.165,6.579 377.56,6.531 380.25,5.802 380.9,1.593 381.15,208.275 H 469 L 470.145,5.43 471.685,0.774 474.12,6.681 476.455,3.9 479.14,9.312 481.325,2.967 483.265,5.859 485.6,4.707 488.385,0 490.57,1.257 493.155,7.548 495.59,1.788 497.975,4.809 500.015,4.302 502.55,7.806 502.8,208.275 H 567.65'/>
        <circle class='none' cx='0' cy='208.275' r='2.5'/>
        <circle class='none' cx='567.65' cy='208.275' r='2.5'/>
    </g>
</svg>