<svg xmlns='http://www.w3.org/2000/svg'
     xmlns:xlink='http://www.w3.org/1999/xlink'
     preserveAspectRatio='none'
     xmlns:inkscape='http://www.inkscape.org/namespaces/inkscape'
     xmlns:sodipodi='http://sodipodi.sourceforge.net/DTD/sodipodi-0.dtd'
     viewBox='-22.83 -22.83 263.736 693.476'
     width='263.736'
     height='693.476'>
    <sodipodi:namedview inkscape:window-width='1415' inkscape:window-height='905' inkscape:zoom='1'/>
    <style type='text/css'>
        .grid { stroke: #9e9ed1; stroke-width: 0.4; }
        .grid-over-axes-outline { stroke: black; stroke-width: 0.0525; fill: none; }
        .polaroid-card-background { stroke: black; fill: white; stroke-width: 0.423; }
        .axes { stroke: #000; stroke-width: 0.564; }
        .notch-labels-in-grid { stroke: none; fill: #b8b8de; }
        .graph { stroke: #ff0000; stroke-width: 1.127; fill: none; }
        .none { display: none; }
    </style>
    <defs>
        <clipPath id='trbl_clip_0_218.08_602.92_0'>
            <path d='M 0,0 H 218.076 V 602.916 H 0 Z'/>
        </clipPath>
        <path id='STIXWEBMAIN-2212' stroke-width='1' d='M621 220h-557v66h557v-66Z'/>
        <path id='STIXWEBMAIN-33' stroke-width='1' d='M61 510l-16 4c29 95 92 162 196 162c93 0 156 -55 156 -137c0 -48 -26 -98 -93 -138c44 -19 62 -31 83 -53c28 -31 44 -77 44 -129c0 -53 -17 -102 -46 -140c-48 -64 -143 -93 -232 -93c-73 0 -112 21 -112 57c0 21 18 36 41 36c17 0 33 -6 61 -26c37 -26 58 -31 86 -31 c74 0 130 68 130 153c0 76 -35 125 -104 145c-22 7 -45 10 -102 10v14c38 13 64 24 84 36c49 28 81 73 81 134c0 68 -42 102 -108 102c-62 0 -108 -32 -149 -106Z'/>
        <path id='STIXWEBMAIN-38' stroke-width='1' d='M445 155c0 -103 -77 -169 -197 -169c-113 0 -192 69 -192 163c0 69 23 108 130 183c-103 85 -124 123 -124 188c0 96 83 156 194 156c99 0 168 -65 168 -143c0 -75 -35 -109 -134 -162c123 -82 155 -136 155 -216zM355 533c0 69 -41 115 -109 115 c-67 0 -110 -37 -110 -99s37 -108 125 -160c68 40 94 82 94 144zM271 272l-59 40c-59 -48 -80 -89 -80 -154c0 -92 51 -144 127 -144c65 0 110 45 110 110c0 62 -30 102 -98 148Z'/>
        <path id='STIXWEBMAIN-34' stroke-width='1' d='M473 167h-103v-167h-78v167h-280v64l314 445h44v-445h103v-64zM292 231v343l-240 -343h240Z'/>
    </defs>
    <g id='polaroid-card-background' inkscape:groupmode='layer' inkscape:label='polaroid-card-background'>
        <path class='polaroid-card-background' d='M -12.83,-12.83 H 230.906 V 660.646 H -12.83 Z'/>
    </g>
    <g id='grid' inkscape:groupmode='layer' inkscape:label='grid'>
        <path d='M 0,0 H 218.076 V 602.916 H 0 Z' fill='#fafafa'/>
        <path class='grid' d='M 12.828,602.916 V 320.66502 M 12.828,303.91737 V 0'/>
        <path class='grid' d='M 44.898,602.916 V 0'/>
        <path class='grid' d='M 76.968,602.916 V 0'/>
        <path class='grid' d='M 109.038,602.916 V 0'/>
        <path class='grid' d='M 141.108,602.916 V 0'/>
        <path class='grid' d='M 173.178,602.916 V 0'/>
        <path class='grid' d='M 205.248,602.916 V 320.65597 M 205.248,303.91737 V 0'/>
        <path class='grid' d='M 0,590.088 H 218.076'/>
        <path class='grid' d='M 0,558.018 H 85.01294 M 106.57863,558.018 H 218.076'/>
        <path class='grid' d='M 0,525.948 H 218.076'/>
        <path class='grid' d='M 0,493.878 H 218.076'/>
        <path class='grid' d='M 0,461.808 H 218.076'/>
        <path class='grid' d='M 0,429.738 H 85.01294 M 106.57863,429.738 H 218.076'/>
        <path class='grid' d='M 0,397.668 H 218.076'/>
        <path class='grid' d='M 0,365.598 H 218.076'/>
        <path class='grid' d='M 0,333.528 H 218.076'/>
        <path class='grid' d='M 0,301.458 H 218.076'/>
        <path class='grid' d='M 0,269.388 H 218.076'/>
        <path class='grid' d='M 0,237.318 H 218.076'/>
        <path class='grid' d='M 0,205.248 H 218.076'/>
        <path class='grid' d='M 0,173.178 H 94.67941 M 106.57863,173.178 H 218.076'/>
        <path class='grid' d='M 0,141.108 H 218.076'/>
        <path class='grid' d='M 0,109.038 H 218.076'/>
        <path class='grid' d='M 0,76.968 H 218.076'/>
        <path class='grid' d='M 0,44.898 H 94.67941 M 106.57863,44.898 H 218.076'/>
        <path class='grid' d='M 0,12.828 H 218.076'/>
    </g>
    <g id='axes' inkscape:groupmode='layer' inkscape:label='axes'>
        <path class='axes' d='M 0,301.458 H 218.076'/>
        <path class='axes' d='M 109.038,602.916 V 0'/>
    </g>
    <g id='over-axes-grid-outline' inkscape:groupmode='layer' inkscape:label='over-axes-grid-outline'>
        <path class='grid-over-axes-outline' d='M 0,0 H 218.076 V 602.916 H 0 Z'/>
    </g>
    <g id='notch labels' class='notch-labels-in-grid' inkscape:groupmode='layer' inkscape:label='notch labels'>
        <g transform='translate(12.827999999999989,303.91737) scale(0.014091955084317032) translate(-593,909.0969913309536) scale(1,-1)'>
            <use xlink:href='#STIXWEBMAIN-2212' x='0' y='0'/>
            <use xlink:href='#STIXWEBMAIN-33' x='685' y='0'/>
        </g>
        <g transform='translate(205.248,303.91737) scale(0.014084336167832168) translate(-250.25,909.0969913309536) scale(1,-1)'>
            <use xlink:href='#STIXWEBMAIN-33' x='0' y='0'/>
        </g>
        <g transform='translate(106.57863,558.018) scale(0.014091955084317032) translate(-1358.1774604793472,337.77479697960484) scale(1,-1)'>
            <use xlink:href='#STIXWEBMAIN-2212' x='0' y='0'/>
            <use xlink:href='#STIXWEBMAIN-38' x='685' y='0'/>
        </g>
        <g transform='translate(106.57863,429.73800000000006) scale(0.014091955084317032) translate(-1358.1774604793472,337.77479697960484) scale(1,-1)'>
            <use xlink:href='#STIXWEBMAIN-2212' x='0' y='0'/>
            <use xlink:href='#STIXWEBMAIN-34' x='685' y='0'/>
        </g>
        <g transform='translate(106.57863,173.17800000000003) scale(0.014084336167832168) translate(-672.6774604793472,337.77479697960484) scale(1,-1)'>
            <use xlink:href='#STIXWEBMAIN-34' x='0' y='0'/>
        </g>
        <g transform='translate(106.57863,44.898000000000025) scale(0.014084336167832168) translate(-672.6774604793472,337.77479697960484) scale(1,-1)'>
            <use xlink:href='#STIXWEBMAIN-38' x='0' y='0'/>
        </g>
    </g>
    <g id='graphs' inkscape:groupmode='layer' inkscape:label='graphs'>
        <g clip-path='url(#trbl_clip_0_218.08_602.92_0)'>
            <path class='graph' d='M -19.242,654.228 L 237.318,-115.452'/>
            <circle class='none' cx='-19.242' cy='654.228' r='2.2449'/>
            <circle class='none' cx='237.318' cy='-115.452' r='2.2449'/>
        </g>
    </g>
    <g id='BEFORE' transform='translate(109.038, 631.779) translate(-207.365, -370.57)'>
        <path d='M 168.1,362.44 C 168.37,365.79 168.48,369.15 168.67,372.5 C 168.79,373.88 168.89,375.26 169.1,376.62 C 169.12,376.76 169.15,376.9 169.19,377.04 C 169.19,377.06 169.24,377.09 169.22,377.1 C 168.63,377.28 168.03,377.42 167.43,377.58 C 167.43,377.58 169.28,376.98 169.28,376.98 V 376.98 C 168.67,377.29 168.08,377.66 167.45,377.92 C 167.4,377.94 167.42,377.82 167.41,377.76 C 167.39,377.61 167.38,377.46 167.36,377.31 C 167.24,375.91 167.14,374.51 167.04,373.11 C 166.86,369.79 166.75,366.45 166.3,363.15 C 166.3,363.15 168.1,362.44 168.1,362.44 Z'/>
        <path d='M 164.87,362.64 C 166.5,362.2 168.67,361.9 170.37,361.82 C 171.56,361.77 173.05,361.82 174.23,362.05 C 174.72,362.14 175.18,362.34 175.66,362.48 C 176.54,362.91 177.45,363.42 177.14,364.6 C 176.83,365.79 175.55,366.57 174.66,367.26 C 173.12,368.27 173.49,368.07 171.3,369.19 C 171.09,369.29 170.86,369.36 170.65,369.46 C 170.55,369.5 170.3,369.69 170.37,369.61 C 171.88,368.06 171.24,368.22 172.52,368.19 C 174.91,368.42 177.66,369.2 179.22,371.17 C 179.5,371.53 179.65,371.96 179.87,372.36 C 179.91,372.76 180.05,373.17 180,373.57 C 179.87,374.55 179.23,375.27 178.36,375.72 C 177.2,376.32 175.98,376.83 174.72,377.19 C 173.23,377.62 170.16,377.73 168.64,377.82 C 166.7,377.76 165.62,377.84 163.79,377.42 C 163.38,377.32 162.93,377.24 162.6,376.97 C 162.41,376.82 162.25,376.65 162.17,376.42 L 164.18,375.61 C 164.44,376.17 164.81,376.16 165.29,376.37 C 167.09,376.81 167.81,376.56 169.74,376.62 C 172.27,376.72 174,376.5 175.69,376.11 C 175.95,376.07 176.32,375.88 176.56,375.78 C 177.27,375.51 178.06,375.02 178.27,374.22 C 178.36,373.9 178.26,373.55 178.25,373.22 C 178.07,372.87 177.95,372.48 177.71,372.17 C 176.23,370.28 173.5,369.64 171.22,369.56 C 170.97,369.56 170.41,369.79 170.46,369.54 C 170.73,368.13 171.07,368.24 171.78,367.94 C 174.45,366.69 166.11,370.57 172.84,367.38 C 173.66,366.78 174.09,366.52 174.8,365.82 C 175.01,365.62 175.56,365.08 175.48,364.66 C 175.38,364.11 174.68,363.89 174.3,363.68 C 173.86,363.55 173.43,363.38 172.98,363.3 C 170.14,362.79 166.92,363.29 164.21,364.18 C 164.49,363.38 164.54,363.19 164.87,362.64 Z'/>
        <path d='M 183.08,361.11 C 183.14,361.48 183.22,361.84 183.26,362.22 C 183.42,363.59 183.46,364.82 183.5,366.22 C 183.58,368.61 183.58,370.99 183.58,373.38 C 183.57,374.91 183.56,376.43 183.57,377.96 C 183.57,377.96 181.84,378.59 181.84,378.59 V 378.59 C 181.92,377.05 181.98,375.51 181.99,373.97 C 182.02,370.37 182.12,366.51 181.58,362.95 C 181.53,362.61 181.44,362.27 181.37,361.93 C 181.37,361.93 183.08,361.11 183.08,361.11 Z'/>
        <path d='M 181.74,361.85 C 185.36,361.6 188.97,361.36 192.59,361.12 C 193.89,361.03 193.32,361.07 194.31,361.01 C 194.31,361.01 193.06,362.41 193.06,362.41 V 362.41 C 192.11,362.42 192.66,362.41 191.41,362.45 C 187.79,362.62 184.14,362.81 180.54,363.32 C 180.54,363.32 181.74,361.85 181.74,361.85 Z'/>
        <path d='M 182.55,367.01 C 185.47,366.98 188.4,366.96 191.32,366.9 C 191.32,366.9 190.12,368.21 190.12,368.21 V 368.21 C 187.17,368.2 184.21,368.24 181.26,368.4 C 181.26,368.4 182.55,367.01 182.55,367.01 Z'/>
        <path d='M 183.34,376.4 C 186.66,376.23 189.97,376.17 193.29,376.1 C 193.65,376.09 194.01,376.08 194.38,376.07 C 194.38,376.07 193.14,377.42 193.14,377.42 V 377.42 C 192.79,377.42 192.44,377.41 192.09,377.41 C 188.76,377.41 185.43,377.47 182.12,377.86 C 182.12,377.86 183.34,376.4 183.34,376.4 Z'/>
        <path d='M 197.08,363.76 C 196.59,367.56 196.78,371.41 196.93,375.23 C 197,376.64 197.07,378.06 197.15,379.47 C 197.15,379.47 195.43,380.13 195.43,380.13 V 380.13 C 195.42,378.7 195.39,377.27 195.34,375.84 C 195.2,372.01 195.06,368.17 195.26,364.34 C 195.26,364.34 197.08,363.76 197.08,363.76 Z'/>
        <path d='M 195.17,364.29 C 199.07,364 203.01,363.76 206.93,364.01 C 207.13,364.05 207.33,364.08 207.53,364.11 C 207.53,364.11 206.18,365.43 206.18,365.43 V 365.43 C 206,365.4 205.83,365.36 205.66,365.33 C 201.77,364.97 197.83,365.22 193.96,365.69 C 193.96,365.69 195.17,364.29 195.17,364.29 Z'/>
        <path d='M 195.68,369.91 C 199.17,369.83 202.67,369.88 206.16,369.86 C 206.16,369.86 204.94,371.18 204.94,371.18 V 371.18 C 201.44,371.09 197.93,371.07 194.44,371.33 C 194.44,371.33 195.68,369.91 195.68,369.91 Z'/>
        <path d='M 212.86,364.77 C 212.45,365.02 212.19,365.29 211.76,365.6 C 211.25,366.18 210.62,366.65 210.13,367.25 C 209.34,368.18 208.2,369.92 207.83,371.14 C 207.65,371.74 207.68,372.4 207.61,373.02 C 207.66,373.51 207.78,374.19 208.09,374.68 C 208.84,375.89 210.19,376.41 211.53,376.62 C 213.54,376.93 214.88,376.65 216.77,375.9 C 217.16,375.75 217.74,375.4 218.26,374.92 C 218.84,374.35 219.11,374.02 219.55,373.27 C 220.32,371.96 220.64,370.08 220.18,368.61 C 219.72,367.15 218.41,365.78 217.28,364.84 C 216.73,364.4 216.1,364.07 215.51,363.68 C 214.52,362.91 212.47,362.93 212.26,362.91 V 362.91 C 212.8,362.47 213.28,361.95 213.87,361.59 C 214.96,361.61 216.59,362.47 216.88,362.65 C 217.48,363.07 218.12,363.43 218.67,363.91 C 219.87,364.93 221.25,366.43 221.74,367.98 C 222.24,369.55 221.95,371.61 221.19,373.03 C 220.76,373.83 220.04,374.43 219.46,375.14 C 218.16,376.14 217.06,376.64 215.76,377.19 C 212.99,378.36 208.28,378.35 206.51,375.43 C 206.17,374.88 206.04,374.3 205.97,373.58 C 206.03,372.89 205.98,372.18 206.17,371.52 C 206.36,370.8 206.69,369.98 207.09,369.36 C 209.34,365.94 210.91,364.66 213.93,363.24 Z'/>
        <path d='M 225.31,362.84 C 225.34,367.32 225.46,371.8 225.68,376.28 C 225.68,376.28 224.12,376.89 224.12,376.89 V 376.89 C 224.03,372.43 223.87,367.98 223.6,363.53 C 223.6,363.53 225.31,362.84 225.31,362.84 Z'/>
        <path d='M 220.91,364.75 C 221.66,364.37 222.38,363.94 223.15,363.61 C 223.96,363.28 225.23,363.25 226.03,363.26 C 227.26,363.28 228.5,363.42 229.7,363.7 C 230.21,363.82 230.7,364.01 231.19,364.17 C 231.52,364.38 231.93,364.51 232.18,364.81 C 232.39,365.05 232.5,365.38 232.51,365.69 C 232.53,367.02 230.88,367.84 229.94,368.35 C 228.97,368.87 227.98,369.36 226.99,369.86 C 225.63,370.45 224.55,371.01 223.27,371.47 C 223.68,370.89 224.15,370.35 224.59,369.8 C 224.7,369.76 224.8,369.7 224.91,369.7 C 225.63,369.68 226.42,370.16 226.99,370.52 C 227.53,370.86 229.51,372.26 229.89,372.53 C 232.31,374.41 234.91,376.06 237.22,378.08 L 237.37,378.24 235.73,379.26 V 379.26 C 235.71,379.22 235.68,379.19 235.66,379.15 C 233.55,376.98 230.9,375.41 228.51,373.58 C 227.96,373.21 227.41,372.83 226.84,372.47 C 226.12,372 225.1,371.22 224.15,371.18 C 222.97,371.72 224.14,370.41 224.45,369.93 C 224.47,369.9 224.52,369.91 224.55,369.89 C 224.67,369.85 224.78,369.81 224.9,369.76 C 225.95,369.35 226.98,368.89 228,368.41 C 228.85,368 229.12,367.88 229.51,367.69 C 229.84,367.48 231.33,366.63 230.73,365.92 C 230.51,365.66 230.24,365.53 229.88,365.37 C 229.47,365.17 228.93,365.04 228.45,364.93 C 227.3,364.67 226.05,364.54 224.87,364.58 C 223.41,364.59 224.87,364.58 222.82,364.64 L 220.91,364.75 Z'/>
        <path d='M 238.35,363.69 C 238.52,367.6 238.67,371.52 238.85,375.43 C 238.88,376.46 238.85,377.49 238.79,378.52 C 238.79,378.52 237.01,379.12 237.01,379.12 V 379.12 C 237.15,378.11 237.23,377.09 237.22,376.06 C 237.12,372.17 236.99,368.27 236.6,364.39 C 236.6,364.39 238.35,363.69 238.35,363.69 Z'/>
        <path d='M 237.17,362.19 C 241.11,362.34 245.06,362.4 249.01,362.4 C 249.39,362.39 249.76,362.39 250.14,362.39 C 250.14,362.39 248.9,363.73 248.9,363.73 V 363.73 C 248.54,363.72 248.17,363.71 247.81,363.68 C 243.84,363.58 239.86,363.53 235.88,363.57 C 235.88,363.57 237.17,362.18 237.17,362.18 Z'/>
        <path d='M 238.86,368.78 C 241.75,368.58 244.64,368.4 247.53,368.33 C 247.53,368.33 246.36,369.62 246.36,369.62 V 369.62 C 243.45,369.65 240.54,369.81 237.65,370.18 C 237.65,370.18 238.86,368.78 238.86,368.78 Z'/>
        <path d='M 237.61,376.85 C 242.03,376.54 246.45,376.33 250.88,376.55 C 250.9,376.55 252.11,376.63 252.36,376.76 C 252.45,376.81 252.49,376.92 252.56,377 L 250.9,377.99 V 377.99 C 250.26,377.9 250.11,377.88 249.66,377.83 C 245.24,377.51 240.77,377.7 236.39,378.32 Z'/>
        <rect id='PACER' style='display:none;fill:#f0f' x='162.17' y='361.01' width='90.39' height='19.12' opacity='0.5'/>
    </g>
</svg>